W14_GOT
…
Now each line, on each page, is its own row, with extra starting
& trailing spaces removed.

Get the tokens (individual words) in tidy format

Here we’ll use tidytext::unnest_tokens() (which pulls
from the tokenizer) package, to split columns into tokens.
We are interested in words, so that’s the token we’ll use:

got_tokens <- got_df %>% 
  unnest_tokens(word, text_full)
got_tokens

## # A tibble: 297,814 × 2
##    got_text                                                                word 
##    <chr>                                                                   <chr>
##  1 "                  A GAME OF THRONES\n\n\n            Book One of A So… a    
##  2 "                  A GAME OF THRONES\n\n\n            Book One of A So… game 
##  3 "                  A GAME OF THRONES\n\n\n            Book One of A So… of   
##  4 "                  A GAME OF THRONES\n\n\n            Book One of A So… thro…
##  5 "                  A GAME OF THRONES\n\n\n            Book One of A So… book 
##  6 "                  A GAME OF THRONES\n\n\n            Book One of A So… one  
##  7 "                  A GAME OF THRONES\n\n\n            Book One of A So… of   
##  8 "                  A GAME OF THRONES\n\n\n            Book One of A So… a    
##  9 "                  A GAME OF THRONES\n\n\n            Book One of A So… song 
## 10 "                  A GAME OF THRONES\n\n\n            Book One of A So… of   
## # ℹ 297,804 more rows

# See how this differs from `got_df`
# Each word has its own row!

Now we’ll count the words.

got_wc <- got_tokens %>% 
  count(word) %>% 
  arrange(-n)
got_wc

## # A tibble: 11,826 × 2
##    word      n
##    <chr> <int>
##  1 the   17988
##  2 and    8997
##  3 to     6640
##  4 a      6461
##  5 of     6200
##  6 he     5166
##  7 his    5161
##  8 was    3904
##  9 her    3659
## 10 you    3267
## # ℹ 11,816 more rows
…
“afinn”: Words ranked from -5 (very negative) to +5 (very
positive)

get_sentiments(lexicon = "afinn")

## # A tibble: 2,477 × 2
##    word       value
##    <chr>      <dbl>
##  1 abandon       -2
##  2 abandoned     -2
##  3 abandons      -2
##  4 abducted      -2
##  5 abduction     -2
##  6 abductions    -2
##  7 abhor         -3
##  8 abhorred      -3
##  9 abhorrent     -3
## 10 abhors        -3
## # ℹ 2,467 more rows

# Note: may be prompted to download (yes)

# Let's look at the pretty positive words:
afinn_pos <- get_sentiments("afinn") %>% 
  filter(value %in% c(3,4,5))

# Do not look at negative words in class. 
afinn_pos

## # A tibble: 222 × 2
##    word         value
##    <chr>        <dbl>
##  1 admire           3
##  2 admired          3
##  3 admires          3
##  4 admiring         3
##  5 adorable         3
##  6 adore            3
##  7 adored           3
##  8 adores           3
##  9 affection        3
## 10 affectionate     3
## # ℹ 212 more rows

bing: binary, “positive” or “negative”

get_sentiments(lexicon = "bing")

## # A tibble: 6,786 × 2
##    word        sentiment
##    <chr>       <chr>    
##  1 2-faces     negative 
##  2 abnormal    negative 
##  3 abolish     negative 
##  4 abominable  negative 
##  5 abominably  negative 
##  6 abominate   negative 
##  7 abomination negative 
##  8 abort       negative 
##  9 aborted     negative 
## 10 aborts      negative 
## # ℹ 6,776 more rows

nrc:https://saifmohammad.com/WebPages/NRC-Emotion-Lexicon.htm
Includes bins for 8 emotions (anger, anticipation, disgust, fear, joy,
sadness, surprise, trust) and positive / negative.

Citation for NRC lexicon: Crowdsourcing a
Word-Emotion Association Lexicon, Saif Mohammad and Peter Turney,
Computational Intelligence, 29 (3), 436-465, 2013.

Now nrc:

get_sentiments(lexicon = "nrc")

## # A tibble: 13,872 × 2
##    word        sentiment
##    <chr>       <chr>    
##  1 abacus      trust    
##  2 abandon     fear     
##  3 abandon     negative 
##  4 abandon     sadness  
##  5 abandoned   anger    
##  6 abandoned   fear     
##  7 abandoned   negative 
##  8 abandoned   sadness  
##  9 abandonment anger    
## 10 abandonment fear     
## # ℹ 13,862 more rows
…
